{
	"type": "minecraft:entity",
	"pools": [
		{
			"rolls": 1,
			"entries": [
				{
					"type": "minecraft:loot_table",
					"name": "minecraft:entities/spider"
				}
			],
			"conditions": [
				{
					"condition": "minecraft:random_chance",
					"chance": 0.1
				}
			]
		}
	]
}