{
	"type": "minecraft:chest",
	"pools": [
		{
			"rolls": {
				"min": 4,
				"max": 7,
				"type": "minecraft:uniform"
			},
			"entries": [
				{
					"type": "minecraft:item",
					"name": "minecraft:bone",
					"weight": 1,
					"functions": [
						{
							"function": "minecraft:set_count",
							"count": {
								"min": 1,
								"max": 2,
								"type": "minecraft:uniform"
							}
						}
					]
				},
				{
					"type": "minecraft:item",
					"name": "minecraft:arrow",
					"weight": 1,
					"functions": [
						{
							"function": "minecraft:set_count",
							"count": {
								"min": 1,
								"max": 2,
								"type": "minecraft:uniform"
							}
						}
					]
				},
				{
					"type": "minecraft:item",
					"name": "minecraft:fire_charge",
					"weight": 1,
					"functions": [
						{
							"function": "minecraft:set_count",
							"count": {
								"min": 1,
								"max": 2,
								"type": "minecraft:uniform"
							}
						}
					]
				},
				{
					"type": "minecraft:item",
					"name": "minecraft:gold_ingot",
					"weight": 2,
					"functions": [
						{
							"function": "minecraft:set_count",
							"count": {
								"min": 1,
								"max": 3,
								"type": "minecraft:uniform"
							}
						}
					]
				},
				{
					"type": "minecraft:item",
					"name": "minecraft:gunpowder",
					"weight": 2,
					"functions": [
						{
							"function": "minecraft:set_count",
							"count": {
								"min": 1,
								"max": 2,
								"type": "minecraft:uniform"
							}
						}
					]
				}
			]
		},
		{
			"rolls": {
				"min": 3,
				"max": 4,
				"type": "minecraft:uniform"
			},
			"entries": [
				{
					"type": "minecraft:item",
					"name": "minecraft:golden_pickaxe",
					"weight": 1
				},
				{
					"type": "minecraft:item",
					"name": "minecraft:soul_lantern",
					"weight": 1,
					"functions": [
						{
							"function": "minecraft:set_count",
							"count": {
								"min": 1,
								"max": 2,
								"type": "minecraft:uniform"
							}
						}
					]
				},
				{
					"type": "minecraft:item",
					"name": "minecraft:soul_soil",
					"weight": 2,
					"functions": [
						{
							"function": "minecraft:set_count",
							"count": {
								"min": 1,
								"max": 3,
								"type": "minecraft:uniform"
							}
						}
					]
				},
				{
					"type": "minecraft:item",
					"name": "minecraft:glowstone",
					"weight": 2,
					"functions": [
						{
							"function": "minecraft:set_count",
							"count": {
								"min": 1,
								"max": 2,
								"type": "minecraft:uniform"
							}
						}
					]
				},
				{
					"type": "minecraft:item",
					"name": "minecraft:bone_block",
					"weight": 3,
					"functions": [
						{
							"function": "minecraft:set_count",
							"count": {
								"min": 1,
								"max": 2,
								"type": "minecraft:uniform"
							}
						}
					]
				},
				{
					"type": "minecraft:item",
					"name": "minecraft:ghast_tear",
					"weight": 3,
					"functions": [
						{
							"function": "minecraft:set_count",
							"count": {
								"min": 1,
								"max": 3,
								"type": "minecraft:uniform"
							}
						}
					]
				}
			]
		},
		{
			"rolls": {
				"min": 2,
				"max": 3,
				"type": "minecraft:uniform"
			},
			"entries": [
				{
					"type": "minecraft:item",
					"name": "minecraft:diamond",
					"weight": 3,
					"functions": [
						{
							"function": "minecraft:set_count",
							"count": {
								"min": 1,
								"max": 2,
								"type": "minecraft:uniform"
							}
						}
					]
				},
				{
					"type": "minecraft:item",
					"name": "minecraft:music_disc_11",
					"weight": 1
				},
				{
					"type": "minecraft:item",
					"name": "minecraft:book",
					"weight": 4,
					"functions": [
						{
							"function": "minecraft:enchant_randomly"
						}
					]
				},
				{
					"type": "minecraft:loot_table",
					"name": "dungeons_plus:chests/soul_prison/golden_armor"
				},
				{
					"type": "minecraft:item",
					"name": "minecraft:golden_carrot",
					"weight": 5,
					"functions": [
						{
							"function": "minecraft:set_count",
							"count": {
								"min": 2,
								"max": 4,
								"type": "minecraft:uniform"
							}
						}
					]
				}
			]
		}
	]
}