{
	"type": "minecraft:chest",
	"pools": [
		{
			"rolls": {
				"min": 3,
				"max": 5,
				"type": "minecraft:uniform"
			},
			"entries": [
				{
					"type": "minecraft:item",
					"name": "minecraft:sand",
					"weight": 1,
					"functions": [
						{
							"function": "minecraft:set_count",
							"count": {
								"min": 1,
								"max": 2,
								"type": "minecraft:uniform"
							}
						}
					]
				},
				{
					"type": "minecraft:item",
					"name": "minecraft:bone",
					"weight": 1,
					"functions": [
						{
							"function": "minecraft:set_count",
							"count": {
								"min": 1,
								"max": 2,
								"type": "minecraft:uniform"
							}
						}
					]
				},
				{
					"type": "minecraft:item",
					"name": "minecraft:rotten_flesh",
					"weight": 1,
					"functions": [
						{
							"function": "minecraft:set_count",
							"count": {
								"min": 1,
								"max": 5,
								"type": "minecraft:uniform"
							}
						}
					]
				},
				{
					"type": "minecraft:item",
					"name": "minecraft:dead_bush",
					"weight": 1
				},
				{
					"type": "minecraft:item",
					"name": "minecraft:gold_nugget",
					"weight": 1,
					"functions": [
						{
							"function": "minecraft:set_count",
							"count": {
								"min": 2,
								"max": 5,
								"type": "minecraft:uniform"
							}
						}
					]
				},
				{
					"type": "minecraft:item",
					"name": "minecraft:iron_ingot",
					"weight": 1,
					"functions": [
						{
							"function": "minecraft:set_count",
							"count": {
								"min": 1,
								"max": 3,
								"type": "minecraft:uniform"
							}
						}
					]
				}
			]
		},
		{
			"rolls": {
				"min": 2,
				"max": 4,
				"type": "minecraft:uniform"
			},
			"entries": [
				{
					"type": "minecraft:item",
					"name": "minecraft:red_sand",
					"weight": 2,
					"functions": [
						{
							"function": "minecraft:set_count",
							"count": {
								"min": 2,
								"max": 3,
								"type": "minecraft:uniform"
							}
						}
					]
				},
				{
					"type": "minecraft:item",
					"name": "minecraft:glass_bottle",
					"weight": 1
				},
				{
					"type": "minecraft:item",
					"name": "minecraft:gold_ingot",
					"weight": 4,
					"functions": [
						{
							"function": "minecraft:set_count",
							"count": {
								"min": 2,
								"max": 4,
								"type": "minecraft:uniform"
							}
						}
					]
				},
				{
					"type": "minecraft:item",
					"name": "minecraft:redstone",
					"weight": 4,
					"functions": [
						{
							"function": "minecraft:set_count",
							"count": {
								"min": 1,
								"max": 3,
								"type": "minecraft:uniform"
							}
						}
					]
				},
				{
					"type": "minecraft:item",
					"name": "minecraft:coal",
					"weight": 4,
					"functions": [
						{
							"function": "minecraft:set_count",
							"count": {
								"min": 1,
								"max": 3,
								"type": "minecraft:uniform"
							}
						}
					]
				},
				{
					"type": "minecraft:item",
					"name": "minecraft:iron_shovel",
					"weight": 1
				}
			]
		},
		{
			"rolls": {
				"min": 1,
				"max": 3,
				"type": "minecraft:uniform"
			},
			"entries": [
				{
					"type": "minecraft:item",
					"name": "minecraft:golden_apple",
					"weight": 1
				},
				{
					"type": "minecraft:item",
					"name": "minecraft:bucket",
					"weight": 2
				},
				{
					"type": "minecraft:item",
					"name": "minecraft:book",
					"weight": 5,
					"functions": [
						{
							"function": "minecraft:enchant_randomly"
						}
					]
				},
				{
					"type": "minecraft:item",
					"name": "minecraft:gold_nugget",
					"weight": 3
				}
			]
		}
	]
}