{
	"type": "minecraft:chest",
	"pools": [
		{
			"rolls": 1,
			"entries": [
				{
					"type": "minecraft:loot_table",
					"name": "dungeons_plus:chests/bigger_dungeon/stray"
				}
			]
		},
		{
			"rolls": 1,
			"entries": [
				{
					"type": "minecraft:item",
					"name": "minecraft:map",
					"functions": [
						{
							"function": "minecraft:exploration_map",
							"destination": "dungeons_plus:snowy_temple",
							"decoration": "red_x",
							"zoom": 1,
							"skip_existing_chunks": false
						}
					]
				}
			]
		}
	]
}